{"data":[{"blood":false,"avatar":"https:\/\/htb-mp-prod-public-storage.s3.eu-central-1.amazonaws.com\/avatars\/d90d9ba3228fb458485c03a1b4c2f6e5.png","type":"root","id":909,"name":"Checkpoint","points":30,"ownDate":"2026-06-15T18:33:48.000Z"},{"blood":false,"avatar":"https:\/\/htb-mp-prod-public-storage.s3.eu-central-1.amazonaws.com\/avatars\/d90d9ba3228fb458485c03a1b4c2f6e5.png","type":"user","id":909,"name":"Checkpoint","points":15,"ownDate":"2026-06-15T18:15:24.000Z"},{"blood":false,"avatar":"https:\/\/htb-mp-prod-public-storage.s3.eu-central-1.amazonaws.com\/avatars\/93c53cc1fc0284e5d9d74a565a8b9bf0.png","type":"root","id":548,"name":"Sandworm","points":0,"ownDate":"2026-06-12T18:55:23.000Z"},{"blood":false,"avatar":"https:\/\/htb-mp-prod-public-storage.s3.eu-central-1.amazonaws.com\/avatars\/93c53cc1fc0284e5d9d74a565a8b9bf0.png","type":"user","id":548,"name":"Sandworm","points":0,"ownDate":"2026-06-12T18:04:41.000Z"},{"blood":false,"avatar":"https:\/\/htb-mp-prod-public-storage.s3.eu-central-1.amazonaws.com\/avatars\/8e821c7bbdb90d8520bb597edae70080.png","type":"root","id":903,"name":"DevHub","points":30,"ownDate":"2026-06-10T23:56:11.000Z"},{"blood":false,"avatar":"https:\/\/htb-mp-prod-public-storage.s3.eu-central-1.amazonaws.com\/avatars\/8e821c7bbdb90d8520bb597edae70080.png","type":"user","id":903,"name":"DevHub","points":15,"ownDate":"2026-06-10T23:45:53.000Z"},{"blood":false,"avatar":"https:\/\/htb-mp-prod-public-storage.s3.eu-central-1.amazonaws.com\/avatars\/5f828febf436aa997dff714a184614fe.png","type":"root","id":906,"name":"Connected","points":20,"ownDate":"2026-06-08T15:05:35.000Z"},{"blood":false,"avatar":"https:\/\/htb-mp-prod-public-storage.s3.eu-central-1.amazonaws.com\/avatars\/5f828febf436aa997dff714a184614fe.png","type":"user","id":906,"name":"Connected","points":10,"ownDate":"2026-06-08T14:32:39.000Z"},{"blood":false,"avatar":"https:\/\/htb-mp-prod-public-storage.s3.eu-central-1.amazonaws.com\/avatars\/56868ca419111fc0721393a2ffa0cefe.png","type":"root","id":900,"name":"Reactor","points":20,"ownDate":"2026-05-23T20:30:06.000Z"},{"blood":false,"avatar":"https:\/\/htb-mp-prod-public-storage.s3.eu-central-1.amazonaws.com\/avatars\/56868ca419111fc0721393a2ffa0cefe.png","type":"user","id":900,"name":"Reactor","points":10,"ownDate":"2026-05-23T20:01:09.000Z"},{"blood":false,"avatar":"https:\/\/htb-mp-prod-public-storage.s3.eu-central-1.amazonaws.com\/avatars\/a7af9035e5089332dfbfeb328d663f3e.png","type":"root","id":510,"name":"Flight","points":0,"ownDate":"2026-05-22T23:52:32.000Z"},{"blood":false,"avatar":"https:\/\/htb-mp-prod-public-storage.s3.eu-central-1.amazonaws.com\/avatars\/a7af9035e5089332dfbfeb328d663f3e.png","type":"user","id":510,"name":"Flight","points":0,"ownDate":"2026-05-22T23:09:51.000Z"},{"blood":false,"avatar":"https:\/\/htb-mp-prod-public-storage.s3.eu-central-1.amazonaws.com\/avatars\/eaed7cd01e84ef5c6ec7d949d1d61110.png","type":"root","id":559,"name":"CozyHosting","points":0,"ownDate":"2026-05-22T18:24:48.000Z"},{"blood":false,"avatar":"https:\/\/htb-mp-prod-public-storage.s3.eu-central-1.amazonaws.com\/avatars\/eaed7cd01e84ef5c6ec7d949d1d61110.png","type":"user","id":559,"name":"CozyHosting","points":0,"ownDate":"2026-05-22T18:21:32.000Z"},{"blood":false,"avatar":"https:\/\/htb-mp-prod-public-storage.s3.eu-central-1.amazonaws.com\/avatars\/26260a4f7f1e95d188a99210fb2ae693.png","type":"root","id":897,"name":"SmartHire","points":30,"ownDate":"2026-05-22T17:02:52.000Z"}],"meta":{"page":1,"lastPage":11,"totalItems":154}}
